Data visualization practice: ggplot2 practical use
…
--- Download complete ---

#tuesdata <- tidytuesdayR::tt_load(2020, week = 32)

energy_types <- tuesdata$energy_types
country_totals <- tuesdata$country_totals

# Or read in the data manually
#energy_types <- readr::read_csv('https://raw.githubusercontent.com/rfordatascience/tidytuesday/master/data/2020/2020-08-04/energy_types.csv')
#country_totals <- readr::read_csv('https://raw.githubusercontent.com/rfordatascience/tidytuesday/master/data/2020/2020-08-04/country_totals.csv')

energy_types %>% tibble()

# A tibble: 296 × 7
   country country_name type                 level   `2016` `2017` `2018`
   <chr>   <chr>        <chr>                <chr>    <dbl>  <dbl>  <dbl>
 1 BE      Belgium      Conventional thermal Level 1  30728 31316  30093.
 2 BE      Belgium      Nuclear              Level 1  41430 40128. 26996.
 3 BE      Belgium      Hydro                Level 1   1476  1361.  1239.
 4 BE      Belgium      Pumped hydro power   Level 2   1110  1093.   983.
 5 BE      Belgium      Wind                 Level 1   5340  6388.  7177.
 6 BE      Belgium      Solar                Level 1   3070  3264.  3489.
 7 BE      Belgium      Geothermal           Level 1      0     0      0 
 8 BE      Belgium      Other                Level 1    476   491.   219.
 9 BG      Bulgaria     Conventional thermal Level 1  18909 20234. 19334 
10 BG      Bulgaria     Nuclear              Level 1  14932 14718. 15290 
# ℹ 286 more rows

country_totals %>% tibble()

# A tibble: 185 × 7
   country country_name type                       level `2016` `2017` `2018`
   <chr>   <chr>        <chr>                      <chr>  <dbl>  <dbl>  <dbl>
 1 BE      Belgium      Total net production       Total  82520 82948. 69212.
 2 BE      Belgium      Imports                    Total  14648 14189. 21636.
 3 BE      Belgium      Exports                    Total   8465  8168.  4308.
 4 BE      Belgium      Energy absorbed by pumping Total   1475  1485.  1348.
 5 BE      Belgium      Energy supplied            Total  87228 87485. 85192.
 6 BG      Bulgaria     Total net production       Total  41221 41351. 41705 
 7 BG      Bulgaria     Imports                    Total   4568  3705.  2223 
 8 BG      Bulgaria     Exports                    Total  10940  9186. 10030 
 9 BG      Bulgaria     Energy absorbed by pumping Total    918   950.   425 
10 BG      Bulgaria     Energy supplied            Total  33931 34921. 33473 
# ℹ 175 more rows
…
3.6 Ordering

# Create table for ordering
energy_total <- energy_type_fin %>% 
  select(-c(`2016`, `2017`)) %>% 
  group_by(country_name) %>% 
  mutate(
    energy_total = sum(`2018`)/1000,
    `2018` = `2018`/1000
  )

energy_total

# A tibble: 259 × 6
# Groups:   country_name [37]
   country country_name type                 level   `2018` energy_total
   <chr>   <chr>        <chr>                <chr>    <dbl>        <dbl>
 1 BE      Belgium      Conventional thermal Level 1 30.1           69.2
 2 BE      Belgium      Nuclear              Level 1 27.0           69.2
 3 BE      Belgium      Hydro                Level 1  1.24          69.2
 4 BE      Belgium      Wind                 Level 1  7.18          69.2
 5 BE      Belgium      Solar                Level 1  3.49          69.2
 6 BE      Belgium      Geothermal           Level 1  0             69.2
 7 BE      Belgium      Other                Level 1  0.219         69.2
 8 BG      Bulgaria     Conventional thermal Level 1 19.3           41.7
 9 BG      Bulgaria     Nuclear              Level 1 15.3           41.7
10 BG      Bulgaria     Hydro                Level 1  4.69          41.7
# ℹ 249 more rows
…
Let’s say we want to see the share of each energy type in the total energy consumption.

3.8 A new chart for the share of each energy type in the total energy consumption

# Create table for percentage
energy_total_perc <- energy_total %>% 
  group_by(country_name) %>% 
  mutate(
    perc = `2018`/energy_total
  )

energy_total_perc

# A tibble: 259 × 7
# Groups:   country_name [37]
   country country_name type                 level   `2018` energy_total    perc
   <chr>   <chr>        <chr>                <chr>    <dbl>        <dbl>   <dbl>
 1 BE      Belgium      Conventional thermal Level 1 30.1           69.2 0.435  
 2 BE      Belgium      Nuclear              Level 1 27.0           69.2 0.390  
 3 BE      Belgium      Hydro                Level 1  1.24          69.2 0.0179 
 4 BE      Belgium      Wind                 Level 1  7.18          69.2 0.104  
 5 BE      Belgium      Solar                Level 1  3.49          69.2 0.0504 
 6 BE      Belgium      Geothermal           Level 1  0             69.2 0      
 7 BE      Belgium      Other                Level 1  0.219         69.2 0.00316
 8 BG      Bulgaria     Conventional thermal Level 1 19.3           41.7 0.464  
 9 BG      Bulgaria     Nuclear              Level 1 15.3           41.7 0.367  
10 BG      Bulgaria     Hydro                Level 1  4.69          41.7 0.112  
# ℹ 249 more rows
…
